EESchema Schematic File Version 4
EELAYER 26 0
EELAYER END
$Descr A4 11693 8268
encoding utf-8
Sheet 1 1
Title ""
Date ""
Rev ""
Comp ""
Comment1 ""
Comment2 ""
Comment3 ""
Comment4 ""
$EndDescr
$Comp
L Device:Antenna_Dipole AE1
U 1 1 5E9F5759
P 5450 2800
F 0 "AE1" H 5680 2716 50  0000 L CNN
F 1 "PIFA" H 5680 2625 50  0000 L CNN
F 2 "RF_Antenna:Texas_SWRA228C_868MHz" H 5450 2800 50  0001 C CNN
F 3 "~" H 5450 2800 50  0001 C CNN
	1    5450 2800
	1    0    0    -1  
$EndComp
$Comp
L RF_Module:RFM95W-868S2 U1
U 1 1 5E9F58EE
P 4500 3350
F 0 "U1" H 4500 4028 50  0000 C CNN
F 1 "RFM95W-868S2" H 4500 3937 50  0000 C CNN
F 2 "RF_Module:HOPERF_RFM9XW_SMD" H 1200 5000 50  0001 C CNN
F 3 "https://www.hoperf.com/data/upload/portal/20181127/5bfcbea20e9ef.pdf" H 1200 5000 50  0001 C CNN
	1    4500 3350
	1    0    0    -1  
$EndComp
$Comp
L power:GND #PWR0101
U 1 1 5E9F59B5
P 4500 4150
F 0 "#PWR0101" H 4500 3900 50  0001 C CNN
F 1 "GND" H 4505 3977 50  0000 C CNN
F 2 "" H 4500 4150 50  0001 C CNN
F 3 "" H 4500 4150 50  0001 C CNN
	1    4500 4150
	1    0    0    -1  
$EndComp
Wire Wire Line
	4500 4150 4500 4050
Wire Wire Line
	4500 4050 4400 4050
Wire Wire Line
	4400 4050 4400 3950
Wire Wire Line
	4500 3950 4500 4050
Connection ~ 4500 4050
Wire Wire Line
	4500 4050 4600 4050
Wire Wire Line
	4600 4050 4600 3950
Wire Wire Line
	5000 3050 5450 3050
Wire Wire Line
	5450 3050 5450 3000
$Comp
L power:GND #PWR0102
U 1 1 5E9F5A87
P 5550 3050
F 0 "#PWR0102" H 5550 2800 50  0001 C CNN
F 1 "GND" H 5555 2877 50  0000 C CNN
F 2 "" H 5550 3050 50  0001 C CNN
F 3 "" H 5550 3050 50  0001 C CNN
	1    5550 3050
	1    0    0    -1  
$EndComp
Wire Wire Line
	5550 3050 5550 3000
$Comp
L Connector_Generic:Conn_01x14 J1
U 1 1 5E9F5CC9
P 2450 3100
F 0 "J1" H 2370 2175 50  0000 C CNN
F 1 "Conn_01x14" H 2370 2266 50  0000 C CNN
F 2 "Connector_PinHeader_2.54mm:PinHeader_1x14_P2.54mm_Vertical" H 2450 3100 50  0001 C CNN
F 3 "~" H 2450 3100 50  0001 C CNN
	1    2450 3100
	-1   0    0    1   
$EndComp
Wire Bus Line
	5450 4500 3400 4500
Wire Wire Line
	5000 3250 5350 3250
Wire Wire Line
	5000 3350 5350 3350
Entry Wire Line
	5350 3550 5450 3650
Entry Wire Line
	5350 3650 5450 3750
Entry Wire Line
	5350 3750 5450 3850
Wire Wire Line
	5000 3450 5350 3450
Wire Wire Line
	5000 3550 5350 3550
Wire Wire Line
	5000 3650 5350 3650
Wire Wire Line
	5000 3750 5350 3750
$Comp
L power:GND #PWR0103
U 1 1 5E9FAF19
P 2750 3700
F 0 "#PWR0103" H 2750 3450 50  0001 C CNN
F 1 "GND" H 2755 3527 50  0000 C CNN
F 2 "" H 2750 3700 50  0001 C CNN
F 3 "" H 2750 3700 50  0001 C CNN
	1    2750 3700
	1    0    0    -1  
$EndComp
Entry Wire Line
	5350 3250 5450 3350
Entry Wire Line
	5350 3350 5450 3450
Entry Wire Line
	5350 3450 5450 3550
Text Label 2850 3100 0    50   ~ 0
DIO5
Text Label 2850 2800 0    50   ~ 0
DIO4
Text Label 2850 2900 0    50   ~ 0
DIO3
Text Label 2850 2700 0    50   ~ 0
DIO2
Text Label 2850 2600 0    50   ~ 0
DIO1
Text Label 2850 2500 0    50   ~ 0
DIO0
Text Label 5100 3250 0    50   ~ 0
DIO5
Text Label 5100 3350 0    50   ~ 0
DIO4
Text Label 5100 3450 0    50   ~ 0
DIO3
Text Label 5100 3550 0    50   ~ 0
DIO2
Text Label 5100 3650 0    50   ~ 0
DIO1
Text Label 5100 3750 0    50   ~ 0
DIO0
Wire Wire Line
	2650 2500 3300 2500
Wire Wire Line
	2650 2600 3300 2600
Entry Wire Line
	3300 2500 3400 2600
Entry Wire Line
	3300 2600 3400 2700
Wire Wire Line
	2650 2800 3300 2800
Entry Wire Line
	3300 2800 3400 2900
Wire Wire Line
	4000 3550 3000 3550
Wire Wire Line
	3000 3550 3000 3200
Wire Wire Line
	3000 3200 2650 3200
Wire Wire Line
	4000 3250 3950 3250
Wire Wire Line
	3950 3250 3950 3600
Wire Wire Line
	2650 3600 3950 3600
Wire Wire Line
	4000 3150 3900 3150
Wire Wire Line
	3900 3150 3900 3500
Wire Wire Line
	2650 3500 3900 3500
Wire Wire Line
	4000 3050 3850 3050
Wire Wire Line
	3850 3050 3850 3400
Wire Wire Line
	2650 3400 3850 3400
Wire Wire Line
	3800 3300 3800 3350
Wire Wire Line
	3800 3350 4000 3350
Wire Wire Line
	2650 3300 3800 3300
Wire Wire Line
	2650 3100 3300 3100
Entry Wire Line
	3300 3100 3400 3200
Wire Wire Line
	2650 3700 2700 3700
Wire Wire Line
	2700 3700 2700 3000
Wire Wire Line
	2700 3000 2650 3000
Connection ~ 2700 3700
Wire Wire Line
	2700 3700 2750 3700
Wire Wire Line
	2650 2900 3300 2900
Entry Wire Line
	3300 2900 3400 3000
Wire Wire Line
	2650 2700 3300 2700
Entry Wire Line
	3300 2700 3400 2800
Wire Wire Line
	2650 2400 4500 2400
Wire Wire Line
	4500 2400 4500 2850
Wire Bus Line
	5450 3350 5450 4500
Wire Bus Line
	3400 2500 3400 4500
$EndSCHEMATC
